\contentsline {chapter}{\numberline {1}Introduction}{2}{chapter.1}
\contentsline {section}{\numberline {1.1}What you need}{2}{section.1.1}
\contentsline {chapter}{\numberline {2}Terms}{3}{chapter.2}
\contentsline {chapter}{\numberline {3}Creating your Mascot}{4}{chapter.3}
\contentsline {section}{\numberline {3.1}Sponsors}{4}{section.3.1}
\contentsline {section}{\numberline {3.2}Mascots}{4}{section.3.2}
\contentsline {chapter}{\numberline {4}Abilities}{6}{chapter.4}
\contentsline {section}{\numberline {4.1}Burgers}{6}{section.4.1}
\contentsline {section}{\numberline {4.2}Chicken}{6}{section.4.2}
\contentsline {section}{\numberline {4.3}Ethnic}{7}{section.4.3}
\contentsline {section}{\numberline {4.4}Pizza}{7}{section.4.4}
\contentsline {section}{\numberline {4.5}General}{7}{section.4.5}
\contentsline {chapter}{\numberline {5}Mechanics}{8}{chapter.5}
\contentsline {section}{\numberline {5.1}Conditions}{8}{section.5.1}
\contentsline {chapter}{\numberline {6}Inspirations}{9}{chapter.6}
